Monte Carlo Simulations made easy and tidy with tidyMC • tidyMC
…
future_mc returns a list of type mc and
length 11 consisting of a tibble (first_mc_ols$output)
containing the return value of fun for each iteration and
parameter combination. In our case first_mc_ols$output
contains a column for each output b0, b1,
b2, and sigma2, as well as a column for each
parameter in param_list_ols and a column containing the
nice_names of the parameter combinations. Overall the
first_mc_ols$output consists of 6000 rows, i.e., for each
parameter combination 1.000 rows:

first_mc_ols$output
#> # A tibble: 6,000 × 7
#>    params              n inc_x2     b0    b1    b2 sigma2
#>    <chr>           <dbl>  <dbl>  <dbl> <dbl> <dbl>  <dbl>
#>  1 n=100, inc_x2=0   100      0  1.28   3.38    NA   776.
#>  2 n=100, inc_x2=0   100      0 -4.27   3.89    NA   773.
#>  3 n=100, inc_x2=0   100      0  5.85   4.36    NA  1130.
#>  4 n=100, inc_x2=0   100      0  1.57   4.69    NA  1067.
#>  5 n=100, inc_x2=0   100      0 -0.802  3.93    NA   873.
#>  6 n=100, inc_x2=0   100      0  1.26   4.44    NA   880.
#>  7 n=100, inc_x2=0   100      0  5.01   4.22    NA   852.
#>  8 n=100, inc_x2=0   100      0 -1.49   3.99    NA   938.
#>  9 n=100, inc_x2=0   100      0  3.07   3.80    NA   779.
#> 10 n=100, inc_x2=0   100      0  2.06   3.73    NA   999.
#> # ℹ 5,990 more rows
…
